{
  "src_folders" : ["./tests"],
  "output_folder" : "./tests_output",
  "custom_commands_path" : ["./node_modules/nightwatch-commands/commands/","./custom-commands/"],
  "custom_assertions_path" : "./node_modules/nightwatch-commands/commands/",
  "globals_path" : "",

  "selenium" : {
    "start_process" : true,
    "server_path" : "./selenium-server-standalone-2.45.0.jar",
    "log_path" : "./tests_output/selenium",
    "host" : "127.0.0.1",
    "port" : 4444,
    "cli_args" : {
      "webdriver.chrome.driver" : "./node_modules/chromedriver/bin/chromedriver",
      "webdriver.ie.driver" : ""
    }
  },

  "test_settings" : {
    "default" : {
      "launch_url" : "http://localhost",
      "selenium_port"  : 4444,
      "selenium_host"  : "localhost",
      "silent": true,
      "screenshots" : {
        "enabled" : true,
        "path" : "tests/screenshots"
      },
      "desiredCapabilities": {
        "browserName": "firefox",
        "javascriptEnabled": true,
        "acceptSslCerts": true
      }
    },

    "chrome" : {
      "desiredCapabilities": {
        "browserName": "chrome",
        "javascriptEnabled": true,
        "acceptSslCerts": true
      }
    },
    "firefox" : {
      "desiredCapabilities": {
        "browserName": "firefox",
        "javascriptEnabled": true,
        "acceptSslCerts": true
      }
    }
  }
}
